%YAML 1.1
%TAG !u! tag:unity3d.com,2011:
--- !u!114 &11400000
MonoBehaviour:
  m_ObjectHideFlags: 0
  m_PrefabParentObject: {fileID: 0}
  m_PrefabInternal: {fileID: 0}
  m_GameObject: {fileID: 0}
  m_Enabled: 1
  m_EditorHideFlags: 0
  m_Script: {fileID: 0}
  m_Name: Chase Chaser
  m_EditorClassIdentifier: Assembly-CSharp::State
  actions:
  - {fileID: 11400000, guid: 750955d01497b424f8d3bd97dca2a7a2, type: 2}
  - {fileID: 11400000, guid: 1f8aa5379bf8542c9a49ac67cf2ebedb, type: 2}
  transitions:
  - decision: {fileID: 11400000, guid: c9d38bba72c7d4042bcf00e7855b2d54, type: 2}
    trueState: {fileID: 11400000, guid: baa3ab13165134624b126586ecd283dc, type: 2}
    falseState: {fileID: 11400000, guid: 1d1648ec528ba4f968d6efc14045c7ca, type: 2}
  sceneGizmoColor: {r: 1, g: 0.06603667, b: 0, a: 1}
